{
	//コンテナ名
	"name": "python_remote",
	//指定するDockerfile
	"build": {
		"dockerfile": "Dockerfile"
	},
	// devcontainer側のvscodeの設定一覧
	"settings": {
		"terminal.integrated.shell.linux": "/bin/bash",
		"python.pythonPath": "/usr/local/bin/python",
		//ファイル保存時に最終業に改行を追加
		"files.insertFinalNewline": true,
		//末尾の不要な空白を削除
		"files.trimTrailingWhitespace": true,
		//フォーマッター導入
		"python.formatting.provider": "black",
		"python.formatting.blackPath": "/usr/local/bin/black",
		//1行あたりの最大文字数設定
		"python.formatting.blackArgs": [
			"--line-length=79 "
		],
		"editor.formatOnSave": true,
        //フォーマッター導入
        "python.sortImports.path": "/usr/local/bin/isort",
		"editor.codeActionsOnSave": {
			"source.organizeImports": true
		},
		//リンター導入
		"python.linting.flake8Path": "/usr/local/bin/flake8",
		//flake8を警告レベルに設定
		"python.linting.flake8CategorySeverity.E": "Warning",
		"python.linting.flake8CategorySeverity.F": "Warning",
		"[json]": {
			"editor.defaultFormatter": "vscode.json-language-features"
		}
	},
	// devcontainer側にインストールするvscodeの拡張機能一覧
	"extensions": [
		"usernamehw.errorlens",
		"oderwat.indent-rainbow",
		"shardulm94.trailing-spaces",
		"njpwerner.autodocstring"
	]
}
